hw/src/test.vcd
$comment Generated by nMigen $end
$date 2020-10-16 12:44:09.171965 $end
$timescale 100 ps $end
$scope module top $end
$var wire 1 ! clk $end
$var wire 1 " rst $end
$var wire 4 # shift_in_rema $end
$var wire 4 $ temp_numer $end
$var wire 2 % chunk_start $end
$var wire 4 & temp_rema $end
$var wire 4 ' gt_vec $end
$var wire 5 ( $signal $end
$var wire 5 ) $signal$1 $end
$var wire 5 * $signal$2 $end
$var wire 5 + $signal$3 $end
$var wire 2 , quot_digit $end
$var wire 3 - quot $end
$var wire 4 . temp_quot $end
$var wire 3 / rema $end
$var wire 5 0 dbg_denom_mult_lut_0 $end
$var wire 5 1 dbg_denom_mult_lut_1 $end
$var wire 5 2 dbg_denom_mult_lut_2 $end
$var wire 5 3 dbg_denom_mult_lut_3 $end
$var wire 1 4 valid $end
$var wire 1 5 busy $end
$var wire 4 6 dbg_quot $end
$var wire 4 7 dbg_rema $end
$var wire 1 8 start $end
$var wire 3 9 numer $end
$var wire 3 : denom $end
$upscope $end
$enddefinitions $end
#0
$dumpvars
0!
0"
b0 #
b0 $
b0 %
b0 &
b0 '
b0 (
b0 )
b0 *
b0 +
b11 ,
b0 -
b0 .
b0 /
b0 0
b0 1
b0 2
b0 3
04
05
b0 6
b0 7
18
b0 9
b1 :
$end
#5000
1!
15
b11 +
b1 )
08
b10 *
b1 %
b10 2
b1110 '
b1 1
b11 3
b0 ,
#10000
0!
#15000
1!
b0 %
#20000
0!
#24999
1!
05
14
b11 %
#29999
0!
#34999
1!
b10 :
18
#40000
0!
#45000
1!
15
b110 +
b10 )
08
b100 *
04
b1 %
b100 2
b10 1
b110 3
#50000
0!
#55000
1!
b0 %
#60000
0!
#65000
1!
05
14
b11 %
#70000
0!
#75000
1!
b11 :
18
#80000
0!
#85000
1!
15
b1001 +
b11 )
08
b110 *
04
b1 %
b110 2
b11 1
b1001 3
#90000
0!
#95000
1!
b0 %
#100000
0!
#105000
1!
05
14
b11 %
#110000
0!
#115000
1!
b100 :
18
#120000
0!
#125000
1!
15
b1100 +
b100 )
08
b1000 *
04
b1 %
b1000 2
b100 1
b1100 3
#130000
0!
#135000
1!
b0 %
#140000
0!
#145000
1!
05
14
b11 %
#150000
0!
#155000
1!
b101 :
18
#160000
0!
#165000
1!
15
b1111 +
b101 )
08
b1010 *
04
b1 %
b1010 2
b101 1
b1111 3
#170000
0!
#174999
1!
b0 %
#179999
0!
#184999
1!
05
14
b11 %
#189999
0!
#194999
1!
b110 :
18
#199999
0!
#204999
1!
15
b10010 +
b110 )
08
b1100 *
04
b1 %
b1100 2
b110 1
b10010 3
#209999
0!
#214999
1!
b0 %
#219999
0!
#224999
1!
05
14
b11 %
#229999
0!
#234999
1!
b111 :
18
#239999
0!
#244999
1!
15
b10101 +
b111 )
08
b1110 *
04
b1 %
b1110 2
b111 1
b10101 3
#249999
0!
#254999
1!
b0 %
#259999
0!
#264999
1!
05
14
b11 %
#269999
0!
#274999
1!
b1 :
b1 9
18
#279999
0!
#284999
1!
15
b1 $
b11 +
b1 6
b1 )
08
b10 *
04
b1 %
b10 2
b1 1
b11 3
#289999
0!
#294999
1!
b0 %
b1 #
b1100 '
b1 ,
#299999
0!
#304999
1!
05
14
b1 .
b11 %
b0 #
b1 -
b1110 '
b0 ,
#309999
0!
#314999
1!
b10 :
18
#319999
0!
#324999
1!
15
b110 +
b0 6
b10 )
08
b100 *
04
b0 .
b1 7
b1 %
b100 2
b10 1
b0 -
b110 3
#329999
0!
#334999
1!
b0 %
b1 #
#339999
0!
#344999
1!
05
14
b1 &
b11 %
b100 #
b1 /
b1000 '
b10 ,
#349999
0!
#354999
1!
b11 :
18
#359999
0!
#364999
1!
b0 &
15
b1001 +
b11 )
08
b110 *
04
b1 %
b0 /
b1100 '
b11 1
b110 2
b0 #
b1001 3
b1 ,
b1110 '
b0 ,
#369999
0!
#374999
1!
b0 %
b1 #
#379999
0!
#384999
1!
05
14
b1 &
b11 %
b100 #
b1 /
b1100 '
b1 ,
#389999
0!
#394999
1!
b100 :
18
#399999
0!
#404999
1!
b0 &
15
b1100 +
b100 )
08
b1000 *
04
b1 %
b0 /
b100 1
b1000 2
b0 #
b1100 3
b1110 '
b0 ,
#409999
0!
#414999
1!
b0 %
b1 #
#419999
0!
#424999
1!
05
14
b1 &
b11 %
b100 #
b1 /
b1100 '
b1 ,
#429999
0!
#434999
1!
b101 :
18
#439999
0!
#444999
1!
b0 &
15
b1111 +
b101 )
08
b1010 *
04
b1 %
b0 /
b1110 '
b101 1
b1010 2
b0 #
b1111 3
b0 ,
#449999
0!
#454999
1!
b0 %
b1 #
#459999
0!
#464999
1!
05
14
b1 &
b11 %
b100 #
b1 /
#469999
0!
#474999
1!
b110 :
18
#479999
0!
#484999
1!
b0 &
15
b10010 +
b110 )
08
b1100 *
04
b1 %
b0 /
b110 1
b1100 2
b0 #
b10010 3
#489999
0!
#494999
1!
b0 %
b1 #
#499999
0!
#504999
1!
05
14
b1 &
b11 %
b100 #
b1 /
#509999
0!
#514999
1!
b111 :
18
#519999
0!
#524999
1!
b0 &
15
b10101 +
b111 )
08
b1110 *
04
b1 %
b0 /
b111 1
b1110 2
b0 #
b10101 3
#529999
0!
#534999
1!
b0 %
b1 #
#539999
0!
#544999
1!
05
14
b1 &
b11 %
b100 #
b1 /
#549999
0!
#554999
1!
b1 :
b10 9
18
#559999
0!
#564999
1!
b0 &
15
b10 $
b11 +
b10 6
b1 )
08
b10 *
04
b0 7
b1 %
b0 /
b0 '
b1 1
b10 2
b0 #
b11 3
b11 ,
b1110 '
b0 ,
#569999
0!
#574999
1!
b0 %
b10 #
b1000 '
b10 ,
#579999
0!
#584999
1!
05
14
b10 .
b11 %
b0 #
b10 -
b1110 '
b0 ,
#589999
0!
#594999
1!
b10 :
18
#599999
0!
#604999
1!
15
b110 +
b1 6
b10 )
08
b100 *
04
b0 .
b1 %
b100 2
b10 1
b0 -
b110 3
#609999
0!
#614999
1!
b0 %
b10 #
b1100 '
b1 ,
#619999
0!
#624999
1!
05
14
b1 .
b11 %
b0 #
b1 -
b1110 '
b0 ,
#629999
0!
#634999
1!
b11 :
18
#639999
0!
#644999
1!
15
b1001 +
b0 6
b11 )
08
b110 *
04
b0 .
b10 7
b1 %
b110 2
b11 1
b0 -
b1001 3
#649999
0!
#654999
1!
b0 %
b10 #
#659999
0!
#664999
1!
05
14
b10 &
b11 %
b1000 #
b10 /
b1000 '
b10 ,
#669999
0!
#674999
1!
b100 :
18
#679999
0!
#684999
1!
b0 &
15
b1100 +
b100 )
08
b1000 *
04
b1 %
b0 /
b100 1
b1000 2
b0 #
b1100 3
b1110 '
b0 ,
#689999
0!
#694999
1!
b0 %
b10 #
#699999
0!
#704999
1!
05
14
b10 &
b11 %
b1000 #
b10 /
b1000 '
b10 ,
#709999
0!
#714999
1!
b101 :
18
#719999
0!
#724999
1!
b0 &
15
b1111 +
b101 )
08
b1010 *
04
b1 %
b0 /
b1100 '
b101 1
b1010 2
b0 #
b1111 3
b1 ,
b1110 '
b0 ,
#729999
0!
#734999
1!
b0 %
b10 #
#739999
0!
#744999
1!
05
14
b10 &
b11 %
b1000 #
b10 /
b1100 '
b1 ,
#749999
0!
#754999
1!
b110 :
18
#759999
0!
#764999
1!
b0 &
15
b10010 +
b110 )
08
b1100 *
04
b1 %
b0 /
b110 1
b1100 2
b0 #
b10010 3
b1110 '
b0 ,
#769999
0!
#774999
1!
b0 %
b10 #
#779999
0!
#784999
1!
05
14
b10 &
b11 %
b1000 #
b10 /
b1100 '
b1 ,
#789999
0!
#794999
1!
b111 :
18
#799999
0!
#804999
1!
b0 &
15
b10101 +
b111 )
08
b1110 *
04
b1 %
b0 /
b111 1
b1110 2
b0 #
b10101 3
b1110 '
b0 ,
#809999
0!
#814999
1!
b0 %
b10 #
#819999
0!
#824999
1!
05
14
b10 &
b11 %
b1000 #
b10 /
b1100 '
b1 ,
#829999
0!
#834999
1!
b1 :
b11 9
18
#839999
0!
#844999
1!
b0 &
15
b11 $
b11 +
b11 6
b1 )
08
b10 *
04
b0 7
b1 %
b0 /
b0 '
b1 1
b10 2
b0 #
b11 3
b11 ,
b1110 '
b0 ,
#849999
0!
#854999
1!
b0 %
b11 #
b0 '
b11 ,
#859999
0!
#864999
1!
05
14
b11 .
b11 %
b0 #
b11 -
b1110 '
b0 ,
#869999
0!
#874999
1!
b10 :
18
#879999
0!
#884999
1!
15
b110 +
b1 6
b10 )
08
b100 *
04
b0 .
b1 7
b1 %
b100 2
b10 1
b0 -
b110 3
#889999
0!
#894999
1!
b0 %
b11 #
b1100 '
b1 ,
#899999
0!
#904999
1!
b1 &
05
14
b1 .
b11 %
b100 #
b1 -
b1 /
b1000 '
b10 ,
#909999
0!
#914999
1!
b11 :
18
#919999
0!
#924999
1!
b0 &
15
b1001 +
b11 )
08
b110 *
04
b0 .
b0 7
b1 %
b0 /
b1100 '
b11 1
b110 2
b0 #
b1001 3
b0 -
b1 ,
b1110 '
b0 ,
#929999
0!
#934999
1!
b0 %
b11 #
b1100 '
b1 ,
#939999
0!
#944999
1!
05
14
b1 .
b11 %
b0 #
b1 -
b1110 '
b0 ,
#949999
0!
#954999
1!
b100 :
18
#959999
0!
#964999
1!
15
b1100 +
b0 6
b100 )
08
b1000 *
04
b0 .
b11 7
b1 %
b1000 2
b100 1
b0 -
b1100 3
#969999
0!
#974999
1!
b0 %
b11 #
#979999
0!
#984999
1!
05
14
b11 &
b11 %
b1100 #
b11 /
b0 '
b11 ,
#989999
0!
#994999
1!
b101 :
18
#999999
0!
#1004999
1!
b0 &
15
b1111 +
b101 )
08
b1010 *
04
b1 %
b0 /
b1000 '
b101 1
b1010 2
b0 #
b1111 3
b10 ,
b1110 '
b0 ,
#1009999
0!
#1014999
1!
b0 %
b11 #
#1019999
0!
#1024999
1!
05
14
b11 &
b11 %
b1100 #
b11 /
b1000 '
b10 ,
#1029999
0!
#1034999
1!
b110 :
18
#1039999
0!
#1044999
1!
b0 &
15
b10010 +
b110 )
08
b1100 *
04
b1 %
b0 /
b110 1
b1100 2
b0 #
b10010 3
b1110 '
b0 ,
#1049999
0!
#1054999
1!
b0 %
b11 #
#1059999
0!
#1064999
1!
05
14
b11 &
b11 %
b1100 #
b11 /
b1000 '
b10 ,
#1069999
0!
#1074999
1!
b111 :
18
#1079999
0!
#1084999
1!
b0 &
15
b10101 +
b111 )
08
b1110 *
04
b1 %
b0 /
b1100 '
b111 1
b1110 2
b0 #
b10101 3
b1 ,
b1110 '
b0 ,
#1089999
0!
#1094999
1!
b0 %
b11 #
#1099999
0!
#1104999
1!
05
14
b11 &
b11 %
b1100 #
b11 /
b1100 '
b1 ,
#1109999
0!
#1114999
1!
b1 :
b100 9
18
#1119999
0!
#1124999
1!
b0 &
15
b100 $
b11 +
b100 6
b1 )
08
b10 *
04
b0 7
b1 %
b0 /
b0 '
b1 1
b10 2
b1 #
b11 3
b11 ,
b1100 '
b1 ,
#1129999
0!
#1134999
1!
b100 .
b0 %
b0 #
b100 -
b1110 '
b0 ,
#1139999
0!
#1144999
1!
05
14
b11 %
#1149999
0!
#1154999
1!
b10 :
18
#1159999
0!
#1164999
1!
15
b110 +
b10 6
b10 )
08
b100 *
04
b0 .
b1 %
b10 1
b100 2
b1 #
b110 3
b0 -
#1169999
0!
#1174999
1!
b1 &
b0 %
b100 #
b1 /
b1000 '
b10 ,
#1179999
0!
#1184999
1!
b0 &
05
14
b10 .
b11 %
b0 #
b10 -
b0 /
b1110 '
b0 ,
#1189999
0!
#1194999
1!
b11 :
18
#1199999
0!
#1204999
1!
15
b1001 +
b1 6
b11 )
08
b110 *
04
b0 .
b1 7
b1 %
b11 1
b110 2
b1 #
b1001 3
b0 -
#1209999
0!
#1214999
1!
b1 &
b0 %
b100 #
b1 /
b1100 '
b1 ,
#1219999
0!
#1224999
1!
05
14
b1 .
b11 %
b1 -
#1229999
0!
#1234999
1!
b100 :
18
#1239999
0!
#1244999
1!
b0 &
15
b1100 +
b100 )
08
b1000 *
04
b0 .
b0 7
b1 %
b0 /
b100 1
b1000 2
b1 #
b1100 3
b0 -
b1110 '
b0 ,
#1249999
0!
#1254999
1!
b1 &
b0 %
b100 #
b1 /
b1100 '
b1 ,
#1259999
0!
#1264999
1!
b0 &
05
14
b1 .
b11 %
b0 #
b1 -
b0 /
b1110 '
b0 ,
#1269999
0!
#1274999
1!
b101 :
18
#1279999
0!
#1284999
1!
15
b1111 +
b0 6
b101 )
08
b1010 *
04
b0 .
b100 7
b1 %
b101 1
b1010 2
b1 #
b1111 3
b0 -
#1289999
0!
#1294999
1!
b1 &
b0 %
b100 #
b1 /
#1299999
0!
#1304999
1!
05
14
b100 &
b11 %
b0 #
b100 /
#1309999
0!
#1314999
1!
b110 :
18
#1319999
0!
#1324999
1!
b0 &
15
b10010 +
b110 )
08
b1100 *
04
b1 %
b0 /
b110 1
b1100 2
b1 #
b10010 3
#1329999
0!
#1335000
1!
b1 &
b0 %
b100 #
b1 /
#1340000
0!
#1345000
1!
05
14
b100 &
b11 %
b0 #
b100 /
#1350000
0!
#1355000
1!
b111 :
18
#1360000
0!
#1365000
1!
b0 &
15
b10101 +
b111 )
08
b1110 *
04
b1 %
b0 /
b111 1
b1110 2
b1 #
b10101 3
#1370000
0!
#1375000
1!
b1 &
b0 %
b100 #
b1 /
#1380000
0!
#1385000
1!
05
14
b100 &
b11 %
b0 #
b100 /
#1390000
0!
#1395000
1!
b1 :
b101 9
18
#1400000
0!
#1405000
1!
b0 &
15
b101 $
b11 +
b101 6
b1 )
08
b10 *
04
b0 7
b1 %
b0 /
b1 1
b10 2
b1 #
b11 3
b1100 '
b1 ,
#1410000
0!
#1415000
1!
b100 .
b0 %
b100 -
#1420000
0!
#1425000
1!
05
14
b101 .
b11 %
b0 #
b101 -
b1110 '
b0 ,
#1430000
0!
#1435000
1!
b10 :
18
#1440000
0!
#1445000
1!
15
b110 +
b10 6
b10 )
08
b100 *
04
b0 .
b1 7
b1 %
b10 1
b100 2
b1 #
b110 3
b0 -
#1450000
0!
#1455000
1!
b1 &
b0 %
b101 #
b1 /
b1000 '
b10 ,
#1460000
0!
#1465000
1!
05
14
b10 .
b11 %
b100 #
b10 -
#1470000
0!
#1475000
1!
b11 :
18
#1480000
0!
#1485000
1!
b0 &
15
b1001 +
b1 6
b11 )
08
b110 *
04
b0 .
b10 7
b1 %
b0 /
b1100 '
b11 1
b110 2
b1 #
b1001 3
b0 -
b1 ,
b1110 '
b0 ,
#1490000
0!
#1495000
1!
b1 &
b0 %
b101 #
b1 /
b1100 '
b1 ,
#1500000
0!
#1505000
1!
b10 &
05
14
b1 .
b11 %
b1000 #
b1 -
b10 /
b1000 '
b10 ,
#1510000
0!
#1515000
1!
b100 :
18
#1520000
0!
#1525000
1!
b0 &
15
b1100 +
b100 )
08
b1000 *
04
b0 .
b1 7
b1 %
b0 /
b100 1
b1000 2
b1 #
b1100 3
b0 -
b1110 '
b0 ,
#1530000
0!
#1535000
1!
b1 &
b0 %
b101 #
b1 /
b1100 '
b1 ,
#1540000
0!
#1545000
1!
05
14
b1 .
b11 %
b100 #
b1 -
#1550000
0!
#1555000
1!
b101 :
18
#1560000
0!
#1565000
1!
b0 &
15
b1111 +
b101 )
08
b1010 *
04
b0 .
b0 7
b1 %
b0 /
b1110 '
b101 1
b1010 2
b1 #
b1111 3
b0 -
b0 ,
#1570000
0!
#1575000
1!
b1 &
b0 %
b101 #
b1 /
b1100 '
b1 ,
#1580000
0!
#1585000
1!
b0 &
05
14
b1 .
b11 %
b0 #
b1 -
b0 /
b1110 '
b0 ,
#1590000
0!
#1595000
1!
b110 :
18
#1600000
0!
#1605000
1!
15
b10010 +
b0 6
b110 )
08
b1100 *
04
b0 .
b101 7
b1 %
b110 1
b1100 2
b1 #
b10010 3
b0 -
#1610000
0!
#1615000
1!
b1 &
b0 %
b101 #
b1 /
#1620000
0!
#1625000
1!
05
14
b101 &
b11 %
b100 #
b101 /
#1630000
0!
#1635000
1!
b111 :
18
#1640000
0!
#1645000
1!
b0 &
15
b10101 +
b111 )
08
b1110 *
04
b1 %
b0 /
b111 1
b1110 2
b1 #
b10101 3
#1650000
0!
#1655000
1!
b1 &
b0 %
b101 #
b1 /
#1660000
0!
#1665000
1!
05
14
b101 &
b11 %
b100 #
b101 /
#1670000
0!
#1675000
1!
b1 :
b110 9
18
#1680000
0!
#1685000
1!
b0 &
15
b110 $
b11 +
b110 6
b1 )
08
b10 *
04
b0 7
b1 %
b0 /
b0 '
b1 1
b10 2
b1 #
b11 3
b11 ,
b1100 '
b1 ,
#1690000
0!
#1695000
1!
b100 .
b0 %
b10 #
b100 -
b1000 '
b10 ,
#1700000
0!
#1705000
1!
05
14
b110 .
b11 %
b0 #
b110 -
b1110 '
b0 ,
#1710000
0!
#1715000
1!
b10 :
18
#1720000
0!
#1725000
1!
15
b110 +
b11 6
b10 )
08
b100 *
04
b0 .
b1 %
b10 1
b100 2
b1 #
b110 3
b0 -
#1730000
0!
#1735000
1!
b1 &
b0 %
b110 #
b1 /
b0 '
b11 ,
#1740000
0!
#1745000
1!
b0 &
05
14
b11 .
b11 %
b0 #
b11 -
b0 /
b1110 '
b0 ,
#1750000
0!
#1755000
1!
b11 :
18
#1760000
0!
#1765000
1!
15
b1001 +
b10 6
b11 )
08
b110 *
04
b0 .
b1 %
b11 1
b110 2
b1 #
b1001 3
b0 -
#1770000
0!
#1775000
1!
b1 &
b0 %
b110 #
b1 /
b1000 '
b10 ,
#1780000
0!
#1785000
1!
b0 &
05
14
b10 .
b11 %
b0 #
b10 -
b0 /
b1110 '
b0 ,
#1790000
0!
#1795000
1!
b100 :
18
#1800000
0!
#1805000
1!
15
b1100 +
b1 6
b100 )
08
b1000 *
04
b0 .
b10 7
b1 %
b100 1
b1000 2
b1 #
b1100 3
b0 -
#1810000
0!
#1815000
1!
b1 &
b0 %
b110 #
b1 /
b1100 '
b1 ,
#1820000
0!
#1825000
1!
b10 &
05
14
b1 .
b11 %
b1000 #
b1 -
b10 /
b1000 '
b10 ,
#1830000
0!
#1835000
1!
b101 :
18
#1840000
0!
#1845000
1!
b0 &
15
b1111 +
b101 )
08
b1010 *
04
b0 .
b1 7
b1 %
b0 /
b1100 '
b101 1
b1010 2
b1 #
b1111 3
b0 -
b1 ,
b1110 '
b0 ,
#1850000
0!
#1855000
1!
b1 &
b0 %
b110 #
b1 /
b1100 '
b1 ,
#1860000
0!
#1865000
1!
05
14
b1 .
b11 %
b100 #
b1 -
b1110 '
b0 ,
#1870000
0!
#1875000
1!
b110 :
18
#1880000
0!
#1885000
1!
b0 &
15
b10010 +
b110 )
08
b1100 *
04
b0 .
b0 7
b1 %
b0 /
b110 1
b1100 2
b1 #
b10010 3
b0 -
#1890000
0!
#1895000
1!
b1 &
b0 %
b110 #
b1 /
b1100 '
b1 ,
#1900000
0!
#1905000
1!
b0 &
05
14
b1 .
b11 %
b0 #
b1 -
b0 /
b1110 '
b0 ,
#1910000
0!
#1915000
1!
b111 :
18
#1920000
0!
#1925000
1!
15
b10101 +
b0 6
b111 )
08
b1110 *
04
b0 .
b110 7
b1 %
b111 1
b1110 2
b1 #
b10101 3
b0 -
#1930000
0!
#1935000
1!
b1 &
b0 %
b110 #
b1 /
#1940000
0!
#1945000
1!
05
14
b110 &
b11 %
b1000 #
b110 /
b1100 '
b1 ,
#1950000
0!
#1955000
1!
b1 :
b111 9
18
#1960000
0!
#1965000
1!
b0 &
15
b111 $
b11 +
b111 6
b1 )
08
b10 *
04
b0 7
b1 %
b0 /
b0 '
b1 1
b10 2
b1 #
b11 3
b11 ,
b1100 '
b1 ,
#1970000
0!
#1975000
1!
b100 .
b0 %
b11 #
b100 -
b0 '
b11 ,
#1980000
0!
#1985000
1!
05
14
b111 .
b11 %
b0 #
b111 -
b1110 '
b0 ,
#1990000
0!
#1995000
1!
b10 :
18
#2000000
0!
#2005000
1!
15
b110 +
b11 6
b10 )
08
b100 *
04
b0 .
b1 7
b1 %
b10 1
b100 2
b1 #
b110 3
b0 -
#2010000
0!
#2015000
1!
b1 &
b0 %
b111 #
b1 /
b0 '
b11 ,
#2020000
0!
#2025000
1!
05
14
b11 .
b11 %
b100 #
b11 -
b1000 '
b10 ,
#2030000
0!
#2035000
1!
b11 :
18
#2040000
0!
#2045000
1!
b0 &
15
b1001 +
b10 6
b11 )
08
b110 *
04
b0 .
b1 %
b0 /
b1100 '
b11 1
b110 2
b1 #
b1001 3
b0 -
b1 ,
b1110 '
b0 ,
#2050000
0!
#2055000
1!
b1 &
b0 %
b111 #
b1 /
b1000 '
b10 ,
#2060000
0!
#2065000
1!
05
14
b10 .
b11 %
b100 #
b10 -
b1100 '
b1 ,
#2070000
0!
#2075000
1!
b100 :
18
#2080000
0!
#2085000
1!
b0 &
15
b1100 +
b1 6
b100 )
08
b1000 *
04
b0 .
b11 7
b1 %
b0 /
b100 1
b1000 2
b1 #
b1100 3
b0 -
b1110 '
b0 ,
#2090000
0!
#2095000
1!
b1 &
b0 %
b111 #
b1 /
b1100 '
b1 ,
#2100000
0!
#2105000
1!
b11 &
05
14
b1 .
b11 %
b1100 #
b1 -
b11 /
b0 '
b11 ,
#2110000
0!
#2115000
1!
b101 :
18
#2120000
0!
#2125000
1!
b0 &
15
b1111 +
b101 )
08
b1010 *
04
b0 .
b10 7
b1 %
b0 /
b1000 '
b101 1
b1010 2
b1 #
b1111 3
b0 -
b10 ,
b1110 '
b0 ,
#2130000
0!
#2135000
1!
b1 &
b0 %
b111 #
b1 /
b1100 '
b1 ,
#2140000
0!
#2145000
1!
b10 &
05
14
b1 .
b11 %
b1000 #
b1 -
b10 /
#2150000
0!
#2155000
1!
b110 :
18
#2160000
0!
#2165000
1!
b0 &
15
b10010 +
b110 )
08
b1100 *
04
b0 .
b1 7
b1 %
b0 /
b110 1
b1100 2
b1 #
b10010 3
b0 -
b1110 '
b0 ,
#2170000
0!
#2175000
1!
b1 &
b0 %
b111 #
b1 /
b1100 '
b1 ,
#2180000
0!
#2185000
1!
05
14
b1 .
b11 %
b100 #
b1 -
b1110 '
b0 ,
#2190000
0!
#2195000
1!
b111 :
18
#2200000
0!
#2205000
1!
b0 &
15
b10101 +
b111 )
08
b1110 *
04
b0 .
b0 7
b1 %
b0 /
b111 1
b1110 2
b1 #
b10101 3
b0 -
#2210000
0!
#2215000
1!
b1 &
b0 %
b111 #
b1 /
b1100 '
b1 ,
#2220000
0!
#2225000
1!
b0 &
05
14
b1 .
b11 %
b0 #
b1 -
b0 /
b1110 '
b0 ,
